{
  "htmlElements": {
    "tags": [
      "a",
      "article",
      "blockquote",
      "body",
      "button",
      "circle",
      "code",
      "defs",
      "div",
      "em",
      "footer",
      "g",
      "h1",
      "h2",
      "h3",
      "h4",
      "h5",
      "head",
      "header",
      "html",
      "img",
      "input",
      "li",
      "line",
      "lineargradient",
      "link",
      "main",
      "meta",
      "ol",
      "p",
      "path",
      "polyline",
      "pre",
      "rect",
      "script",
      "section",
      "span",
      "stop",
      "strong",
      "style",
      "svg",
      "table",
      "tbody",
      "td",
      "th",
      "thead",
      "title",
      "tr",
      "ul"
    ],
    "classes": [
      "absolute",
      "active",
      "bg-blue-100",
      "bg-gray-100",
      "bg-white",
      "border",
      "border-transparent",
      "bottom-44",
      "capitalize",
      "close-search",
      "container",
      "cursor-pointer",
      "dark:bg-gray-800",
      "dark:bg-gray-900",
      "dark:border-transparent",
      "dark:hover:border-gray-300",
      "dark:hover:text-gray-300",
      "dark:hover:text-white",
      "dark:prose-dark",
      "dark:text-black",
      "dark:text-gray-400",
      "dark:text-gray-600",
      "dark:text-gray-800",
      "dark:text-white",
      "disabled",
      "flex",
      "flex-1",
      "flex-col",
      "flex-wrap",
      "font-bold",
      "font-extrabold",
      "font-light",
      "font-medium",
      "font-semibold",
      "gap-4",
      "gap-8",
      "grid",
      "grid-cols-1",
      "h-52",
      "h-full",
      "hidden",
      "highlight",
      "hover:bg-gray-200",
      "hover:border-gray-800",
      "hover:text-gray-800",
      "hover:text-gray-900",
      "inline-block",
      "items-center",
      "items-end",
      "justify-between",
      "justify-center",
      "left-0",
      "lg:gap-16",
      "lg:gap-6",
      "lg:gap-8",
      "lg:grid-cols-3",
      "lg:prose-lg",
      "max-w-3xl",
      "max-w-4xl",
      "max-w-5xl",
      "max-w-screen-lg",
      "mb-2",
      "mb-4",
      "mb-8",
      "md:flex",
      "md:flex-row",
      "md:grid-cols-2",
      "md:hidden",
      "md:items-center",
      "md:justify-between",
      "md:p-0",
      "md:relative",
      "md:w-auto",
      "min-h-screen",
      "mobile-menu",
      "mobile-menu-button",
      "mr-1",
      "mt-16",
      "mx-1",
      "mx-auto",
      "my-2",
      "my-4",
      "my-8",
      "no-results",
      "object-contain",
      "object-cover",
      "opacity-60",
      "open-search",
      "p-1",
      "p-12",
      "p-2",
      "p-6",
      "page-item",
      "page-link",
      "pagination",
      "pagination-default",
      "pb-6",
      "place-items-center",
      "prose",
      "pt-6",
      "px-2",
      "px-3",
      "px-4",
      "px-6",
      "px-8",
      "py-0.5",
      "py-12",
      "py-2",
      "py-3",
      "py-32",
      "py-4",
      "relative",
      "right-0",
      "right-4",
      "right-8",
      "rotate-6",
      "rounded",
      "rounded-full",
      "rounded-lg",
      "search-list",
      "search-results",
      "search-ui",
      "shadow",
      "shadow-sm",
      "st0",
      "text-2xl",
      "text-3xl",
      "text-4xl",
      "text-center",
      "text-gray-500",
      "text-gray-800",
      "text-gray-900",
      "text-lg",
      "text-sm",
      "text-white",
      "text-xl",
      "toggle-dark-mode",
      "top-0",
      "top-4",
      "top-full",
      "transform",
      "transition-colors",
      "w-1/2",
      "w-full",
      "z-10"
    ],
    "ids": [
      "1-git",
      "11-introduction",
      "110-git-hooks",
      "12-version-control-system",
      "121-centralizted-version-conrol-system-cvcs",
      "122-distributed-version-control-system-dvcs",
      "13-github-vs-git",
      "14-install",
      "15-git-states",
      "16-git-commands",
      "161-configuring-git",
      "1610-git-stash",
      "1611-git-config",
      "1612-color-highlighting",
      "1613-setting-default-editor",
      "162-create-repositories",
      "163-git-clone",
      "164-make-changes",
      "1641-git-add",
      "1642-git-commit",
      "1643-git-tag",
      "1644-git-log",
      "1645-git-show",
      "1646-git-diff",
      "165-redo-commits",
      "166-check-status",
      "167-git-branches",
      "168-add-remote",
      "169-synchronise-changes",
      "1691-git-push",
      "1692-git-pull",
      "1693-git-fetch",
      "1694-git-merge",
      "1695-git-rebase",
      "17-git-ignore",
      "18-git-fork",
      "19-git-alias",
      "2-frequently-asked-questions",
      "21-what-is-a-repository-in-git",
      "210-what-is-git-cherry-pick",
      "22-difference-between-clone-and-fork",
      "23-difference-between-rebase-and-merge",
      "24-difference-between-pull-and-fetch",
      "25-what-is-a-conflict-in-git",
      "26-how-to-resolve-a-conflict-in-git",
      "27-what-is-the-difference-between-the-git-diff-and-git-status",
      "28-how-will-you-know-in-git-if-a-branch-has-already-been-merged-into-master",
      "29-explain-the-difference-between-reverting-and-resetting",
      "Logo",
      "Logo_1_",
      "a",
      "assignment-statements",
      "awards",
      "data-types",
      "getting-the-datatype",
      "keyword-description",
      "list-methods-with-examples",
      "local-variables-vs-global-variables",
      "markdown-**Frequently%20Asked%20Questions**",
      "markdown-Add%20Remote%20",
      "markdown-Centralizted%20version%20conrol%20system%20(CVCS)",
      "markdown-Check%20status",
      "markdown-Configuring%20git%20",
      "markdown-Create%20repositories",
      "markdown-Difference%20between%20clone%20and%20fork",
      "markdown-Difference%20between%20pull%20and%20fetch",
      "markdown-Difference%20between%20rebase%20and%20merge",
      "markdown-Distributed%20version%20control%20system%20(DVCS)",
      "markdown-Explain%20the%20difference%20between%20reverting%20and%20resetting.",
      "markdown-GIT",
      "markdown-Git%20Alias",
      "markdown-Git%20Branches",
      "markdown-Git%20Commands",
      "markdown-Git%20Fork",
      "markdown-Git%20Hooks",
      "markdown-Git%20States",
      "markdown-Git%20ignore",
      "markdown-Git%20stash",
      "markdown-Github%20Vs%20Git",
      "markdown-How%20to%20resolve%20a%20conflict%20in%20Git%3F",
      "markdown-How%20will%20you%20know%20in%20Git%20if%20a%20branch%20has%20already%20been%20merged%20into%20master%3F",
      "markdown-Install",
      "markdown-Introduction",
      "markdown-Make%20changes",
      "markdown-Redo%20commits",
      "markdown-Setting%20default%20editor",
      "markdown-Synchronise%20changes",
      "markdown-Version%20Control%20System%20",
      "markdown-What%20is%20a%20'conflict'%20in%20git%3F",
      "markdown-What%20is%20a%20repository%20in%20Git%3F",
      "markdown-What%20is%20git%20cherry-pick%3F",
      "markdown-What%20is%20the%20difference%20between%20the%20'git%20diff'%20and%20'git%20status'%3F",
      "markdown-color%20highlighting",
      "markdown-git%20add%20",
      "markdown-git%20clone",
      "markdown-git%20commit%20",
      "markdown-git%20config",
      "markdown-git%20diff",
      "markdown-git%20fetch",
      "markdown-git%20log",
      "markdown-git%20merge",
      "markdown-git%20pull",
      "markdown-git%20push",
      "markdown-git%20rebase",
      "markdown-git%20show%20",
      "markdown-git%20tag%20",
      "math-operators-from-highest-to-lowest-precedence",
      "memory-allocation-in-python",
      "notable-lists-methods",
      "program-to-print-hello-world-and-ask-for-information-such-as-name",
      "publications",
      "python-data-types",
      "python-expression",
      "python-variables",
      "rules-for-assigning-names-to-python-variables",
      "skills",
      "types-of-vcs",
      "useful-string-methods",
      "what-is-memory-management",
      "white_background"
    ]
  }
}